<svg width="27" height="30" viewBox="0 0 27 30" fill="none" xmlns="http://www.w3.org/2000/svg">
<g clip-path="url(#clip0_130_356)">
<path d="M19.6262 10.8022C21.5584 12.1827 23.9255 12.995 26.482 12.995V8.07809C25.9982 8.07819 25.5156 8.02771 25.0422 7.92747V11.7978C22.4859 11.7978 20.1191 10.9856 18.1865 9.60519V19.6393C18.1865 24.6589 14.1152 28.7277 9.09342 28.7277C7.21966 28.7277 5.478 28.1615 4.03128 27.1905C5.68252 28.878 7.98528 29.9248 10.5328 29.9248C15.555 29.9248 19.6264 25.856 19.6264 20.8362V10.8022H19.6262ZM21.4024 5.84164C20.4149 4.7634 19.7665 3.36995 19.6262 1.8294V1.19702H18.2618C18.6053 3.15499 19.7768 4.82775 21.4024 5.84164ZM7.20756 23.3387C6.65586 22.6157 6.35763 21.7312 6.35897 20.8218C6.35897 18.5261 8.22114 16.6646 10.5186 16.6646C10.9467 16.6644 11.3723 16.7301 11.7804 16.8594V11.8325C11.3035 11.7673 10.8222 11.7394 10.3412 11.7497V15.6623C9.93293 15.5329 9.50713 15.4672 9.07883 15.4676C6.78145 15.4676 4.91938 17.3288 4.91938 19.6249C4.91938 21.2484 5.85011 22.654 7.20756 23.3387Z" fill="#FF004F"/>
<path d="M18.1865 9.60509C20.1192 10.9855 22.4858 11.7977 25.0422 11.7977V7.92737C23.6153 7.62354 22.3521 6.8783 21.4023 5.84164C19.7766 4.82764 18.6053 3.15488 18.2618 1.19702H14.6781V20.836C14.6699 23.1255 12.8109 24.9793 10.5184 24.9793C9.16759 24.9793 7.96739 24.3357 7.20735 23.3386C5.85011 22.654 4.91928 21.2483 4.91928 19.625C4.91928 17.3292 6.78135 15.4677 9.07873 15.4677C9.5189 15.4677 9.94314 15.5362 10.3411 15.6624V11.7498C5.40746 11.8517 1.4397 15.8808 1.4397 20.8361C1.4397 23.3097 2.42773 25.5522 4.03139 27.1907C5.47811 28.1615 7.21966 28.7279 9.09352 28.7279C14.1154 28.7279 18.1866 24.6588 18.1866 19.6393V9.60519L18.1865 9.60509Z" fill="#2F4858"/>
<path d="M25.0422 7.92724V6.88097C23.7554 6.88292 22.4941 6.52274 21.4023 5.84162C22.3687 6.89908 23.6413 7.62831 25.0422 7.92745V7.92724ZM18.2617 1.1969C18.229 1.00982 18.2039 0.821494 18.1864 0.632379V0H13.2381V19.6391C13.2302 21.9284 11.3712 23.7822 9.07862 23.7822C8.42868 23.7832 7.78763 23.6313 7.20724 23.3388C7.96728 24.3357 9.16748 24.9791 10.5183 24.9791C12.8107 24.9791 14.6699 23.1256 14.678 20.836V1.197H18.2617V1.1969ZM10.3413 11.7497V10.6356C9.92782 10.5791 9.51096 10.5508 9.09362 10.551C4.07121 10.551 0 14.62 0 19.6391C0 22.7859 1.60003 25.5592 4.03148 27.1904C2.42783 25.552 1.43979 23.3095 1.43979 20.8359C1.43979 15.8808 5.40745 11.8516 10.3413 11.7497Z" fill="#00F2EA"/>
</g>
<defs>
<clipPath id="clip0_130_356">
<rect width="26.4828" height="30" fill="white"/>
</clipPath>
</defs>
</svg>
