<svg width="55" height="55" viewBox="0 0 55 55" fill="none" xmlns="http://www.w3.org/2000/svg">
<g clip-path="url(#clip0_73_4793)">
<path d="M40.4573 12.6844C40.2452 12.6828 40.0424 12.597 39.8935 12.446C39.7446 12.2949 39.6618 12.0908 39.6634 11.8787L39.7047 6.23532C39.7063 6.0232 39.792 5.82039 39.9431 5.67149C40.0942 5.5226 40.2983 5.43983 40.5104 5.44138C40.7225 5.44293 40.9253 5.52869 41.0742 5.67978C41.2231 5.83087 41.3059 6.03492 41.3043 6.24704L41.263 11.8904C41.2614 12.1025 41.1757 12.3053 41.0246 12.4542C40.8735 12.6031 40.6694 12.6859 40.4573 12.6844ZM40.3243 30.8456C40.1122 30.8441 39.9094 30.7583 39.7605 30.6072C39.6116 30.4562 39.5288 30.2521 39.5304 30.04L39.5717 24.3966C39.5732 24.1845 39.659 23.9817 39.8101 23.8328C39.9612 23.6839 40.1652 23.6011 40.3773 23.6027C40.5895 23.6042 40.7923 23.69 40.9412 23.8411C41.0901 23.9922 41.1728 24.1962 41.1713 24.4083L41.1299 30.0517C41.1284 30.2638 41.0426 30.4666 40.8916 30.6155C40.7405 30.7644 40.5364 30.8472 40.3243 30.8456ZM34.1526 18.8975L28.5091 18.8562C28.297 18.8546 28.0942 18.7689 27.9453 18.6178C27.7964 18.4667 27.7136 18.2626 27.7151 18.0505C27.7167 17.8384 27.8025 17.6356 27.9535 17.4867C28.1046 17.3378 28.3087 17.255 28.5208 17.2566L34.1642 17.2979C34.3763 17.2995 34.5791 17.3852 34.728 17.5363C34.8769 17.6874 34.9597 17.8915 34.9581 18.1036C34.9566 18.3157 34.8708 18.5185 34.7197 18.6674C34.5686 18.8163 34.3646 18.8991 34.1525 18.8975L34.1526 18.8975ZM52.3139 19.0305L46.6704 18.9892C46.4583 18.9877 46.2554 18.9019 46.1065 18.7508C45.9577 18.5997 45.8749 18.3957 45.8764 18.1836C45.878 17.9714 45.9637 17.7686 46.1148 17.6197C46.2659 17.4708 46.47 17.3881 46.6821 17.3896L52.3255 17.4309C52.5376 17.4325 52.7404 17.5183 52.8893 17.6693C53.0382 17.8204 53.121 18.0245 53.1194 18.2366C53.1179 18.4487 53.0321 18.6515 52.881 18.8004C52.7299 18.9493 52.5259 19.0321 52.3138 19.0305L52.3139 19.0305ZM44.8695 14.55C44.7114 14.5489 44.557 14.5008 44.4262 14.412C44.2953 14.3231 44.1937 14.1974 44.1342 14.0508C44.0747 13.9042 44.0601 13.7433 44.0921 13.5884C44.1241 13.4334 44.2013 13.2915 44.314 13.1805L48.3338 9.21923C48.4851 9.07143 48.6888 8.98959 48.9004 8.99161C49.1119 8.99363 49.314 9.07935 49.4624 9.23002C49.6109 9.38068 49.6936 9.58402 49.6925 9.79554C49.6914 10.0071 49.6066 10.2095 49.4566 10.3586L45.4369 14.3199C45.3621 14.3937 45.2735 14.4521 45.1762 14.4916C45.0788 14.5311 44.9746 14.5509 44.8695 14.55ZM31.9335 27.2979C31.7753 27.2968 31.621 27.2488 31.4901 27.1599C31.3592 27.071 31.2576 26.9454 31.1981 26.7988C31.1387 26.6522 31.124 26.4912 31.156 26.3363C31.188 26.1814 31.2653 26.0394 31.378 25.9284L35.3978 21.9672C35.5489 21.8183 35.7529 21.7355 35.9651 21.737C36.1772 21.7386 36.38 21.8243 36.5289 21.9754C36.6778 22.1265 36.7606 22.3306 36.759 22.5427C36.7575 22.7548 36.6717 22.9577 36.5206 23.1066L32.5008 27.0678C32.4261 27.1416 32.3375 27.2 32.2401 27.2395C32.1428 27.279 32.0386 27.2988 31.9335 27.2979ZM36.0181 14.4852C35.9131 14.4845 35.8092 14.4632 35.7125 14.4223C35.6157 14.3814 35.528 14.3218 35.4543 14.2469L31.4931 10.2271C31.3442 10.076 31.2614 9.87193 31.2629 9.6598C31.2645 9.44767 31.3502 9.24484 31.5013 9.09593C31.6524 8.94702 31.8564 8.86422 32.0685 8.86576C32.2807 8.86729 32.4835 8.95303 32.6324 9.10411L36.5936 13.1239C36.7047 13.2366 36.7798 13.3796 36.8096 13.535C36.8393 13.6904 36.8223 13.8511 36.7607 13.9968C36.6991 14.1425 36.5957 14.2667 36.4635 14.3536C36.3313 14.4406 36.1763 14.4863 36.0181 14.4852ZM48.7662 27.4212C48.6611 27.4206 48.5572 27.3992 48.4605 27.3583C48.3637 27.3174 48.276 27.2577 48.2024 27.1828L44.2411 23.1631C44.0933 23.0118 44.0114 22.8081 44.0134 22.5966C44.0154 22.3851 44.1011 22.183 44.2517 22.0345C44.4023 21.886 44.6057 21.8033 44.8172 21.8043C45.0287 21.8054 45.2312 21.8902 45.3803 22.0402L49.3416 26.0601C49.4526 26.1727 49.5278 26.3158 49.5575 26.4712C49.5873 26.6266 49.5702 26.7873 49.5086 26.933C49.447 27.0787 49.3436 27.2029 49.2114 27.2898C49.0792 27.3767 48.9242 27.4225 48.766 27.4213L48.7662 27.4212Z" fill="#F37168"/>
<path d="M40.4049 19.8914C41.3702 19.8985 42.1585 19.1216 42.1656 18.1563C42.1727 17.1909 41.3958 16.4026 40.4305 16.3955C39.4651 16.3885 38.6768 17.1653 38.6697 18.1307C38.6627 19.096 39.4395 19.8843 40.4049 19.8914Z" fill="#FAC600"/>
<path d="M13.093 8.17316C12.9345 8.17251 12.7798 8.12496 12.6483 8.03648C12.5168 7.94801 12.4145 7.82258 12.3542 7.67601C12.2939 7.52944 12.2783 7.3683 12.3095 7.21291C12.3406 7.05751 12.4171 6.91483 12.5292 6.80284C12.6414 6.69085 12.7842 6.61457 12.9396 6.58363C13.0951 6.55269 13.2562 6.56847 13.4027 6.62898C13.5491 6.68949 13.6744 6.79202 13.7627 6.92363C13.851 7.05525 13.8983 7.21007 13.8988 7.36855L13.8987 7.37922C13.8971 7.59134 13.8114 7.79415 13.6603 7.94304C13.5092 8.09194 13.3051 8.17471 13.093 8.17316ZM13.1165 4.9633C12.9044 4.96175 12.7016 4.87599 12.5527 4.7249C12.4038 4.57381 12.321 4.36976 12.3226 4.15764L12.3227 4.14698C12.3242 3.93486 12.41 3.73204 12.5611 3.58315C12.7122 3.43426 12.9162 3.35148 13.1283 3.35304C13.3405 3.35459 13.5433 3.44035 13.6922 3.59144C13.8411 3.74253 13.9238 3.94658 13.9223 4.1587L13.9222 4.16936C13.9206 4.38148 13.8349 4.58429 13.6838 4.73319C13.5327 4.88208 13.3287 4.96485 13.1165 4.9633ZM13.1401 1.75344C12.9272 1.75188 12.7237 1.66584 12.5743 1.51425C12.425 1.36266 12.3419 1.15793 12.3435 0.945099C12.345 0.732272 12.4311 0.528782 12.5827 0.379393C12.7343 0.230004 12.939 0.146954 13.1518 0.148513C13.2566 0.148676 13.3603 0.169535 13.4569 0.209891C13.5536 0.250247 13.6413 0.309305 13.7151 0.383673C13.7889 0.458041 13.8473 0.546252 13.8868 0.643241C13.9264 0.74023 13.9465 0.844084 13.9458 0.948837L13.9457 0.959501C13.9449 1.06453 13.9235 1.16838 13.8826 1.26513C13.8417 1.36187 13.7821 1.4496 13.7073 1.52333C13.6325 1.59705 13.5439 1.65532 13.4466 1.6948C13.3492 1.73429 13.2451 1.75421 13.1401 1.75344ZM12.9658 25.5422C12.861 25.5421 12.7574 25.5212 12.6607 25.4808C12.564 25.4405 12.4763 25.3814 12.4025 25.3071C12.3287 25.2327 12.2704 25.1445 12.2308 25.0475C12.1912 24.9505 12.1712 24.8466 12.1718 24.7419L12.1719 24.7312C12.1741 24.5733 12.223 24.4195 12.3125 24.2894C12.402 24.1592 12.528 24.0584 12.6747 23.9998C12.8214 23.9411 12.9821 23.9272 13.1367 23.9598C13.2912 23.9924 13.4327 24.07 13.5432 24.1829C13.6537 24.2958 13.7283 24.4389 13.7576 24.5941C13.7869 24.7493 13.7696 24.9097 13.7078 25.0551C13.646 25.2005 13.5426 25.3244 13.4106 25.411C13.2785 25.4977 13.1238 25.5434 12.9658 25.5422ZM12.9893 22.3377C12.7772 22.3361 12.5743 22.2504 12.4255 22.0993C12.2766 21.9482 12.1938 21.7442 12.1953 21.532L12.1954 21.5214C12.197 21.3093 12.2827 21.1064 12.4338 20.9575C12.5849 20.8087 12.789 20.7259 13.0011 20.7274C13.2132 20.729 13.416 20.8147 13.5649 20.9658C13.7138 21.1169 13.7966 21.321 13.795 21.5331L13.7949 21.5438C13.7934 21.7559 13.7076 21.9587 13.5565 22.1076C13.4054 22.2565 13.2014 22.3392 12.9893 22.3377ZM7.58094 13.6051C7.36826 13.6038 7.16476 13.5182 7.01497 13.3672C6.86518 13.2163 6.7813 13.0121 6.78167 12.7994C6.78183 12.6946 6.80269 12.5909 6.84305 12.4943C6.8834 12.3976 6.94246 12.3099 7.01683 12.2361C7.0912 12.1623 7.17941 12.1039 7.2764 12.0644C7.37339 12.0248 7.47724 12.0047 7.58199 12.0054L7.59266 12.0055C7.80478 12.007 8.00759 12.0928 8.15648 12.2439C8.30538 12.395 8.38815 12.599 8.3866 12.8111C8.38504 13.0233 8.29929 13.2261 8.1482 13.375C7.99711 13.5239 7.79306 13.6066 7.58094 13.6051ZM4.37108 13.5816L4.36042 13.5815C4.1483 13.5799 3.94549 13.4942 3.79659 13.3431C3.6477 13.192 3.56493 12.988 3.56648 12.7758C3.56803 12.5637 3.65379 12.3609 3.80488 12.212C3.95597 12.0631 4.16002 11.9803 4.37214 11.9819L4.3828 11.982C4.59492 11.9835 4.79774 12.0693 4.94663 12.2204C5.09552 12.3715 5.17829 12.5755 5.17674 12.7876C5.17519 12.9998 5.08943 13.2026 4.93834 13.3515C4.78725 13.5004 4.5832 13.5831 4.37108 13.5816ZM1.16123 13.5581L1.15056 13.558C0.938442 13.5564 0.735628 13.4707 0.586735 13.3196C0.437842 13.1685 0.355068 12.9644 0.356622 12.7523C0.358176 12.5402 0.44393 12.3374 0.59502 12.1885C0.74611 12.0396 0.950159 11.9568 1.16228 11.9584L1.17294 11.9585C1.38506 11.96 1.58788 12.0458 1.73677 12.1969C1.88566 12.348 1.96844 12.552 1.96688 12.7641C1.96533 12.9762 1.87957 13.1791 1.72848 13.3279C1.57739 13.4768 1.37335 13.5596 1.16123 13.5581ZM24.9552 13.7323L24.9446 13.7323C24.7324 13.7307 24.5296 13.645 24.3807 13.4939C24.2318 13.3428 24.1491 13.1387 24.1506 12.9266C24.1522 12.7145 24.2379 12.5117 24.389 12.3628C24.5401 12.2139 24.7442 12.1311 24.9563 12.1327L24.9669 12.1327C25.1791 12.1343 25.3819 12.2201 25.5308 12.3711C25.6797 12.5222 25.7624 12.7263 25.7609 12.9384C25.7593 13.1505 25.6736 13.3533 25.5225 13.5022C25.3714 13.6511 25.1673 13.7339 24.9552 13.7323ZM21.7454 13.7088L21.7347 13.7088C21.5226 13.7072 21.3198 13.6214 21.1709 13.4704C21.022 13.3193 20.9392 13.1152 20.9408 12.9031C20.9423 12.691 21.0281 12.4882 21.1792 12.3393C21.3303 12.1904 21.5343 12.1076 21.7464 12.1092L21.7571 12.1092C21.9692 12.1108 22.172 12.1965 22.3209 12.3476C22.4698 12.4987 22.5526 12.7028 22.551 12.9149C22.5495 13.127 22.4637 13.3298 22.3126 13.4787C22.1615 13.6276 21.9575 13.7104 21.7454 13.7088ZM18.5355 13.6853L18.5249 13.6852C18.3132 13.6823 18.1114 13.5956 17.9636 13.444C17.8157 13.2925 17.734 13.0886 17.7363 12.877C17.7385 12.6653 17.8246 12.4632 17.9756 12.3149C18.1266 12.1666 18.3302 12.0842 18.5419 12.0857C18.7536 12.0873 18.956 12.1726 19.1048 12.3232C19.2536 12.4737 19.3367 12.677 19.3359 12.8887C19.335 13.1004 19.2503 13.3031 19.1003 13.4524C18.9503 13.6017 18.7472 13.6855 18.5355 13.6853Z" fill="black"/>
<path d="M13.093 8.17316C12.9345 8.17251 12.7798 8.12496 12.6483 8.03648C12.5168 7.94801 12.4145 7.82258 12.3542 7.67601C12.2939 7.52944 12.2783 7.3683 12.3095 7.21291C12.3406 7.05751 12.4171 6.91483 12.5292 6.80284C12.6414 6.69085 12.7842 6.61457 12.9396 6.58363C13.0951 6.55269 13.2562 6.56847 13.4027 6.62898C13.5491 6.68949 13.6744 6.79202 13.7627 6.92363C13.851 7.05525 13.8983 7.21007 13.8988 7.36855L13.8987 7.37922C13.8971 7.59134 13.8114 7.79415 13.6603 7.94304C13.5092 8.09194 13.3051 8.17471 13.093 8.17316ZM13.1165 4.9633C12.9044 4.96175 12.7016 4.87599 12.5527 4.7249C12.4038 4.57381 12.321 4.36976 12.3226 4.15764L12.3227 4.14698C12.3242 3.93486 12.41 3.73204 12.5611 3.58315C12.7122 3.43426 12.9162 3.35148 13.1283 3.35304C13.3405 3.35459 13.5433 3.44035 13.6922 3.59144C13.8411 3.74253 13.9238 3.94658 13.9223 4.1587L13.9222 4.16936C13.9206 4.38148 13.8349 4.58429 13.6838 4.73319C13.5327 4.88208 13.3287 4.96485 13.1165 4.9633ZM13.1401 1.75344C12.9272 1.75188 12.7237 1.66584 12.5743 1.51425C12.425 1.36266 12.3419 1.15793 12.3435 0.945099C12.345 0.732272 12.4311 0.528782 12.5827 0.379393C12.7343 0.230004 12.939 0.146954 13.1518 0.148513C13.2566 0.148676 13.3603 0.169535 13.4569 0.209891C13.5536 0.250247 13.6413 0.309305 13.7151 0.383673C13.7889 0.458041 13.8473 0.546252 13.8868 0.643241C13.9264 0.74023 13.9465 0.844084 13.9458 0.948837L13.9457 0.959501C13.9449 1.06453 13.9235 1.16838 13.8826 1.26513C13.8417 1.36187 13.7821 1.4496 13.7073 1.52333C13.6325 1.59705 13.5439 1.65532 13.4466 1.6948C13.3492 1.73429 13.2451 1.75421 13.1401 1.75344ZM12.9658 25.5422C12.861 25.5421 12.7574 25.5212 12.6607 25.4808C12.564 25.4405 12.4763 25.3814 12.4025 25.3071C12.3287 25.2327 12.2704 25.1445 12.2308 25.0475C12.1912 24.9505 12.1712 24.8466 12.1718 24.7419L12.1719 24.7312C12.1741 24.5733 12.223 24.4195 12.3125 24.2894C12.402 24.1592 12.528 24.0584 12.6747 23.9998C12.8214 23.9411 12.9821 23.9272 13.1367 23.9598C13.2912 23.9924 13.4327 24.07 13.5432 24.1829C13.6537 24.2958 13.7283 24.4389 13.7576 24.5941C13.7869 24.7493 13.7696 24.9097 13.7078 25.0551C13.646 25.2005 13.5426 25.3244 13.4106 25.411C13.2785 25.4977 13.1238 25.5434 12.9658 25.5422ZM12.9893 22.3377C12.7772 22.3361 12.5743 22.2504 12.4255 22.0993C12.2766 21.9482 12.1938 21.7442 12.1953 21.532L12.1954 21.5214C12.197 21.3093 12.2827 21.1064 12.4338 20.9575C12.5849 20.8087 12.789 20.7259 13.0011 20.7274C13.2132 20.729 13.416 20.8147 13.5649 20.9658C13.7138 21.1169 13.7966 21.321 13.795 21.5331L13.7949 21.5438C13.7934 21.7559 13.7076 21.9587 13.5565 22.1076C13.4054 22.2565 13.2014 22.3392 12.9893 22.3377ZM13.0128 19.1225C12.9081 19.1223 12.8044 19.1015 12.7077 19.0611C12.611 19.0208 12.5233 18.9617 12.4495 18.8873C12.3757 18.813 12.3174 18.7248 12.2778 18.6278C12.2382 18.5308 12.2182 18.4269 12.2188 18.3222L12.2189 18.3115C12.2211 18.1536 12.2701 17.9998 12.3595 17.8696C12.449 17.7395 12.575 17.6387 12.7217 17.5801C12.8684 17.5214 13.0291 17.5075 13.1837 17.5401C13.3383 17.5727 13.4797 17.6503 13.5902 17.7632C13.7007 17.8761 13.7753 18.0192 13.8046 18.1744C13.8339 18.3296 13.8166 18.49 13.7548 18.6354C13.6931 18.7808 13.5896 18.9046 13.4576 18.9913C13.3255 19.078 13.1708 19.1237 13.0128 19.1225ZM7.58094 13.6051C7.36826 13.6038 7.16476 13.5182 7.01497 13.3672C6.86518 13.2163 6.7813 13.0121 6.78167 12.7994C6.78183 12.6946 6.80269 12.5909 6.84305 12.4943C6.8834 12.3976 6.94246 12.3099 7.01683 12.2361C7.0912 12.1623 7.17941 12.1039 7.2764 12.0644C7.37339 12.0248 7.47724 12.0047 7.58199 12.0054L7.59266 12.0055C7.80478 12.007 8.00759 12.0928 8.15648 12.2439C8.30538 12.395 8.38815 12.599 8.3866 12.8111C8.38504 13.0233 8.29929 13.2261 8.1482 13.375C7.99711 13.5239 7.79306 13.6066 7.58094 13.6051ZM4.37108 13.5816L4.36042 13.5815C4.1483 13.5799 3.94549 13.4942 3.79659 13.3431C3.6477 13.192 3.56493 12.988 3.56648 12.7758C3.56803 12.5637 3.65379 12.3609 3.80488 12.212C3.95597 12.0631 4.16002 11.9803 4.37214 11.9819L4.3828 11.982C4.59492 11.9835 4.79774 12.0693 4.94663 12.2204C5.09552 12.3715 5.17829 12.5755 5.17674 12.7876C5.17519 12.9998 5.08943 13.2026 4.93834 13.3515C4.78725 13.5004 4.5832 13.5831 4.37108 13.5816ZM1.16123 13.5581L1.15056 13.558C0.938442 13.5564 0.735628 13.4707 0.586735 13.3196C0.437842 13.1685 0.355068 12.9644 0.356622 12.7523C0.358176 12.5402 0.44393 12.3374 0.59502 12.1885C0.74611 12.0396 0.950159 11.9568 1.16228 11.9584L1.17294 11.9585C1.38506 11.96 1.58788 12.0458 1.73677 12.1969C1.88566 12.348 1.96844 12.552 1.96688 12.7641C1.96533 12.9762 1.87957 13.1791 1.72848 13.3279C1.57739 13.4768 1.37335 13.5596 1.16123 13.5581ZM24.9552 13.7323L24.9446 13.7323C24.7324 13.7307 24.5296 13.645 24.3807 13.4939C24.2318 13.3428 24.1491 13.1387 24.1506 12.9266C24.1522 12.7145 24.2379 12.5117 24.389 12.3628C24.5401 12.2139 24.7442 12.1311 24.9563 12.1327L24.9669 12.1327C25.1791 12.1343 25.3819 12.2201 25.5308 12.3711C25.6797 12.5222 25.7624 12.7263 25.7609 12.9384C25.7593 13.1505 25.6736 13.3533 25.5225 13.5022C25.3714 13.6511 25.1673 13.7339 24.9552 13.7323ZM21.7454 13.7088L21.7347 13.7088C21.5226 13.7072 21.3198 13.6214 21.1709 13.4704C21.022 13.3193 20.9392 13.1152 20.9408 12.9031C20.9423 12.691 21.0281 12.4882 21.1792 12.3393C21.3303 12.1904 21.5343 12.1076 21.7464 12.1092L21.7571 12.1092C21.9692 12.1108 22.172 12.1965 22.3209 12.3476C22.4698 12.4987 22.5526 12.7028 22.551 12.9149C22.5495 13.127 22.4637 13.3298 22.3126 13.4787C22.1615 13.6276 21.9575 13.7104 21.7454 13.7088ZM18.5355 13.6853L18.5249 13.6852C18.3132 13.6823 18.1114 13.5956 17.9636 13.444C17.8157 13.2925 17.734 13.0886 17.7363 12.877C17.7385 12.6653 17.8246 12.4632 17.9756 12.3149C18.1266 12.1666 18.3302 12.0842 18.5419 12.0857C18.7536 12.0873 18.956 12.1726 19.1048 12.3232C19.2536 12.4737 19.3367 12.677 19.3359 12.8887C19.335 13.1004 19.2503 13.3031 19.1003 13.4524C18.9503 13.6017 18.7472 13.6855 18.5355 13.6853ZM9.21197 9.7475C9.10647 9.74685 9.00214 9.72527 8.90503 9.68401C8.80793 9.64275 8.71998 9.58264 8.64627 9.50714L8.63876 9.49951C8.56405 9.42472 8.50492 9.33585 8.46477 9.23806C8.42462 9.14027 8.40426 9.03548 8.40486 8.92977C8.40546 8.82406 8.42701 8.71952 8.46826 8.62219C8.50952 8.52485 8.56966 8.43667 8.6452 8.36272C8.72075 8.28878 8.81021 8.23054 8.9084 8.19138C9.00659 8.15222 9.11158 8.13292 9.21728 8.13459C9.32298 8.13625 9.4273 8.15886 9.52421 8.20109C9.62112 8.24333 9.70869 8.30435 9.78187 8.38064L9.78939 8.38816C9.8999 8.50104 9.97452 8.64412 10.0038 8.79935C10.0331 8.95458 10.0158 9.11501 9.95404 9.26041C9.89227 9.40581 9.78884 9.52966 9.65678 9.61635C9.52471 9.70303 9.36994 9.74867 9.21197 9.7475ZM6.95888 7.46116C6.82721 7.46081 6.69766 7.42803 6.58168 7.36572C6.46569 7.3034 6.36685 7.21347 6.29388 7.10388C6.22092 6.99428 6.17607 6.8684 6.16332 6.73735C6.15057 6.6063 6.17031 6.47414 6.22078 6.35253C6.27125 6.23092 6.3509 6.12363 6.4527 6.04012C6.5545 5.95662 6.6753 5.89948 6.80443 5.87376C6.93356 5.84804 7.06703 5.85453 7.19305 5.89266C7.31908 5.93079 7.43377 5.99938 7.52698 6.09236L7.53439 6.09988C7.64545 6.21255 7.7206 6.35562 7.75034 6.51101C7.78008 6.66639 7.76307 6.8271 7.70146 6.97281C7.63986 7.11853 7.53643 7.2427 7.40425 7.32963C7.27206 7.41655 7.11707 7.46233 6.95888 7.46116ZM4.70578 5.17481C4.57423 5.17448 4.44478 5.14177 4.32887 5.07956C4.21295 5.01736 4.11413 4.92758 4.04113 4.81814C3.96812 4.70871 3.92318 4.58298 3.91027 4.45207C3.89735 4.32115 3.91686 4.18907 3.96708 4.06748C4.01729 3.94589 4.09667 3.83853 4.1982 3.75488C4.29972 3.67123 4.42028 3.61385 4.54923 3.58782C4.67818 3.56179 4.81156 3.5679 4.93758 3.60562C5.06361 3.64334 5.17842 3.7115 5.27187 3.80408L5.27939 3.8116C5.39099 3.92406 5.46668 4.06712 5.49686 4.22266C5.52704 4.37819 5.51035 4.53918 5.4489 4.68522C5.38746 4.83125 5.28402 4.95574 5.15172 5.04291C5.01942 5.13007 4.86421 5.17598 4.70578 5.17481ZM21.402 22.1211C21.2984 22.1205 21.196 22.0995 21.1005 22.0592C21.005 22.019 20.9184 21.9604 20.8456 21.8866L20.8381 21.879C20.7103 21.747 20.6321 21.5747 20.6168 21.3916C20.6016 21.2084 20.6503 21.0256 20.7546 20.8742C20.8589 20.7229 21.0124 20.6124 21.189 20.5614C21.3656 20.5104 21.5544 20.5222 21.7233 20.5947C21.8922 20.6672 22.0308 20.796 22.1155 20.9591C22.2002 21.1222 22.2258 21.3097 22.1879 21.4895C22.1501 21.6694 22.0511 21.8306 21.9078 21.9457C21.7645 22.0609 21.5858 22.1228 21.402 22.1211ZM19.1489 19.8347C19.0448 19.8341 18.942 19.8128 18.8461 19.7723C18.7503 19.7317 18.6635 19.6725 18.5906 19.5983L18.5832 19.5907C18.4559 19.4583 18.3783 19.2859 18.3637 19.1028C18.349 18.9196 18.3982 18.7371 18.5029 18.5861C18.6075 18.4351 18.7612 18.325 18.9379 18.2744C19.1145 18.2239 19.3032 18.2361 19.4719 18.3089C19.6406 18.3817 19.7789 18.5106 19.8633 18.6738C19.9477 18.8369 19.973 19.0243 19.935 19.2041C19.8969 19.3838 19.7979 19.5448 19.6546 19.6598C19.5113 19.7748 19.3326 19.8366 19.1489 19.8348L19.1489 19.8347ZM16.9013 17.5505C16.7958 17.5498 16.6915 17.5282 16.5944 17.487C16.4973 17.4457 16.4093 17.3856 16.3356 17.3101L16.3281 17.3024C16.2543 17.2274 16.196 17.1385 16.1566 17.041C16.1172 16.9434 16.0974 16.8391 16.0984 16.7338C16.0994 16.6286 16.1212 16.5247 16.1624 16.4279C16.2036 16.3311 16.2636 16.2434 16.3388 16.1698C16.414 16.0962 16.503 16.0381 16.6006 15.999C16.6983 15.9598 16.8027 15.9403 16.9079 15.9416C17.0131 15.9429 17.117 15.9649 17.2137 16.0064C17.3104 16.0479 17.398 16.1081 17.4713 16.1835L17.4788 16.1911C17.5893 16.304 17.6639 16.447 17.6932 16.6023C17.7225 16.7575 17.7052 16.9179 17.6434 17.0633C17.5817 17.2087 17.4783 17.3326 17.3462 17.4192C17.2142 17.5059 17.0593 17.5516 16.9013 17.5505ZM4.57704 21.9941C4.41921 21.9931 4.26521 21.9454 4.13453 21.8569C4.00384 21.7684 3.90234 21.6431 3.84286 21.4969C3.78338 21.3507 3.7686 21.1902 3.80038 21.0356C3.83216 20.881 3.90907 20.7393 4.02139 20.6284L4.02891 20.621C4.12315 20.5293 4.23854 20.4623 4.36485 20.4259C4.49116 20.3894 4.62451 20.3847 4.75309 20.4121C4.88167 20.4394 5.00152 20.4981 5.10204 20.5828C5.20256 20.6675 5.28064 20.7757 5.32938 20.8978C5.37811 21.0199 5.39601 21.1521 5.38147 21.2828C5.36693 21.4135 5.3204 21.5385 5.24602 21.6469C5.17163 21.7553 5.07167 21.8437 4.95499 21.9042C4.8383 21.9648 4.70849 21.9957 4.57704 21.9941ZM6.86328 19.741C6.70567 19.74 6.55189 19.6924 6.42133 19.6041C6.29078 19.5158 6.18928 19.3908 6.12967 19.245C6.07005 19.0991 6.05497 18.9388 6.08634 18.7843C6.1177 18.6299 6.19411 18.4882 6.30591 18.3771L6.31343 18.3697C6.40746 18.2776 6.52274 18.2102 6.64906 18.1734C6.77538 18.1366 6.90884 18.1315 7.03759 18.1586C7.16635 18.1857 7.28644 18.2441 7.38721 18.3287C7.48798 18.4133 7.56632 18.5215 7.61529 18.6436C7.66425 18.7657 7.68233 18.898 7.66793 19.0288C7.65352 19.1596 7.60707 19.2848 7.53269 19.3934C7.45832 19.5019 7.35831 19.5904 7.24154 19.6511C7.12477 19.7117 6.99485 19.7426 6.86328 19.741ZM9.14766 17.4937C8.98969 17.4925 8.8356 17.4446 8.70483 17.356C8.57405 17.2674 8.47244 17.142 8.41281 16.9957C8.35319 16.8495 8.33822 16.6888 8.36979 16.534C8.40136 16.3792 8.47806 16.2373 8.59022 16.126L8.59774 16.1186C8.74845 15.9699 8.952 15.887 9.16374 15.8881C9.37549 15.8892 9.57816 15.9742 9.72731 16.1245C9.87645 16.2748 9.95991 16.4781 9.95937 16.6899C9.95884 16.9016 9.87435 17.1045 9.72445 17.2541L9.71693 17.2615C9.64212 17.3359 9.55328 17.3948 9.45557 17.4346C9.35785 17.4745 9.25319 17.4946 9.14766 17.4937ZM16.9505 9.80408C16.7926 9.80289 16.6385 9.75498 16.5078 9.66638C16.3771 9.57777 16.2755 9.45245 16.2159 9.30621C16.1563 9.15997 16.1413 8.99935 16.1728 8.8446C16.2043 8.68985 16.281 8.5479 16.3931 8.43664L16.4006 8.42902C16.5513 8.28028 16.7548 8.19737 16.9666 8.19848C17.1783 8.19959 17.381 8.28462 17.5301 8.43493C17.6793 8.58525 17.7628 8.78857 17.7622 9.00031C17.7617 9.21206 17.6772 9.41496 17.5273 9.56451L17.5198 9.57214C17.445 9.64656 17.3561 9.70539 17.2584 9.74522C17.1607 9.78505 17.056 9.80499 16.9505 9.80408ZM19.2368 7.55109C19.0513 7.55006 18.8718 7.48483 18.7288 7.36648C18.5859 7.24812 18.4883 7.08394 18.4527 6.90181C18.4171 6.71968 18.4456 6.53083 18.5334 6.36734C18.6212 6.20385 18.7629 6.07579 18.9344 6.00491C19.1059 5.93403 19.2967 5.92471 19.4743 5.97852C19.6519 6.03233 19.8054 6.14595 19.9087 6.3001C20.0121 6.45425 20.0589 6.63941 20.0412 6.82415C20.0235 7.00888 19.9424 7.1818 19.8117 7.31354L19.8042 7.32095C19.7294 7.39479 19.6408 7.45314 19.5435 7.49263C19.4461 7.53213 19.3419 7.55199 19.2368 7.55109ZM21.5232 5.298C21.3375 5.297 21.1579 5.23172 21.0149 5.11326C20.8719 4.99479 20.7743 4.83046 20.7388 4.64819C20.7033 4.46592 20.732 4.27698 20.82 4.11348C20.908 3.94998 21.05 3.82202 21.2217 3.75136C21.3934 3.68069 21.5843 3.67169 21.762 3.72587C21.9396 3.78005 22.0929 3.89407 22.196 4.04856C22.299 4.20304 22.3454 4.38844 22.3272 4.57324C22.309 4.75805 22.2273 4.93084 22.0961 5.06224L22.0886 5.06965C21.9378 5.21768 21.7345 5.29981 21.5232 5.298Z" fill="#46CC8D"/>
<path d="M13.0443 14.7535C12.6669 14.7508 12.2988 14.6362 11.9866 14.4242C11.6743 14.2122 11.432 13.9124 11.2901 13.5627C11.1482 13.213 11.1132 12.8291 11.1896 12.4595C11.2659 12.0899 11.4501 11.7512 11.7189 11.4863C11.9878 11.2214 12.3291 11.0422 12.6998 10.9713C13.0704 10.9004 13.4538 10.9409 13.8014 11.0879C14.149 11.2349 14.4452 11.4816 14.6526 11.797C14.86 12.1123 14.9692 12.482 14.9664 12.8594C14.9621 13.3653 14.7574 13.8488 14.397 14.2039C14.0367 14.559 13.5502 14.7567 13.0443 14.7535Z" fill="#26A6FE"/>
<path d="M18.9377 36.5263C18.7256 36.5247 18.5227 36.439 18.3739 36.2879C18.225 36.1368 18.1422 35.9327 18.1437 35.7206L18.1851 30.0771C18.1866 29.865 18.2724 29.6622 18.4235 29.5133C18.5746 29.3644 18.7786 29.2816 18.9907 29.2832C19.2029 29.2848 19.4057 29.3705 19.5546 29.5216C19.7035 29.6727 19.7862 29.8767 19.7847 30.0889L19.7433 35.7322C19.7418 35.9444 19.656 36.1472 19.5049 36.2961C19.3538 36.445 19.1498 36.5277 18.9377 36.5262L18.9377 36.5263ZM18.9999 28.0305C18.7878 28.0289 18.585 27.9432 18.4361 27.7921C18.2872 27.641 18.2044 27.437 18.206 27.2248L18.21 26.6788C18.2115 26.4667 18.2973 26.2639 18.4484 26.115C18.5995 25.9661 18.8035 25.8834 19.0156 25.8849C19.2277 25.8865 19.4306 25.9722 19.5795 26.1233C19.7283 26.2744 19.8111 26.4784 19.8096 26.6906L19.8056 27.2366C19.804 27.4487 19.7183 27.6515 19.5672 27.8004C19.4161 27.9493 19.212 28.0321 18.9999 28.0305ZM18.8295 51.2892C18.6174 51.2876 18.4146 51.2019 18.2657 51.0508C18.1168 50.8997 18.0341 50.6956 18.0356 50.4835L18.0769 44.8401C18.0785 44.628 18.1643 44.4252 18.3153 44.2763C18.4664 44.1274 18.6705 44.0446 18.8826 44.0462C19.0947 44.0477 19.2975 44.1335 19.4464 44.2846C19.5953 44.4357 19.6781 44.6397 19.6765 44.8519L19.6352 50.4952C19.6336 50.7073 19.5479 50.9102 19.3968 51.0591C19.2457 51.2079 19.0417 51.2907 18.8295 51.2892ZM18.8047 54.6875C18.5925 54.6859 18.3897 54.6002 18.2408 54.4491C18.0919 54.298 18.0092 54.0939 18.0107 53.8818L18.0147 53.3358C18.0163 53.1237 18.102 52.9209 18.2531 52.772C18.4042 52.6231 18.6083 52.5403 18.8204 52.5419C19.0325 52.5434 19.2353 52.6292 19.3842 52.7803C19.5331 52.9314 19.6159 53.1354 19.6143 53.3475L19.6103 53.8935C19.6088 54.1056 19.523 54.3085 19.3719 54.4573C19.2208 54.6062 19.0168 54.689 18.8047 54.6875ZM14.3446 41.0525L8.70109 41.0111C8.48898 41.0096 8.28616 40.9238 8.13727 40.7727C7.98838 40.6217 7.9056 40.4176 7.90715 40.2055C7.90871 39.9934 7.99446 39.7905 8.14555 39.6417C8.29664 39.4928 8.50069 39.41 8.71281 39.4115L14.3562 39.4529C14.5683 39.4544 14.7711 39.5402 14.92 39.6913C15.0689 39.8424 15.1517 40.0464 15.1501 40.2585C15.1486 40.4707 15.0628 40.6735 14.9117 40.8224C14.7606 40.9713 14.5566 41.054 14.3445 41.0525L14.3446 41.0525ZM5.8488 40.9902L5.3028 40.9862C5.09069 40.9847 4.88787 40.8989 4.73898 40.7478C4.59009 40.5968 4.50731 40.3927 4.50886 40.1806C4.51042 39.9685 4.59617 39.7657 4.74726 39.6168C4.89835 39.4679 5.1024 39.3851 5.31452 39.3866L5.86052 39.3906C6.07264 39.3922 6.27545 39.478 6.42434 39.629C6.57324 39.7801 6.65601 39.9842 6.65446 40.1963C6.6529 40.4084 6.56715 40.6112 6.41606 40.7601C6.26497 40.909 6.06092 40.9918 5.8488 40.9902ZM29.1075 41.1606L23.4641 41.1193C23.252 41.1177 23.0492 41.032 22.9003 40.8809C22.7514 40.7298 22.6686 40.5257 22.6702 40.3136C22.6717 40.1015 22.7575 39.8987 22.9086 39.7498C23.0596 39.6009 23.2637 39.5181 23.4758 39.5197L29.1192 39.561C29.3313 39.5626 29.5341 39.6483 29.683 39.7994C29.8319 39.9505 29.9147 40.1545 29.9131 40.3667C29.9116 40.5788 29.8258 40.7816 29.6747 40.9305C29.5236 41.0794 29.3196 41.1622 29.1075 41.1606ZM32.5058 41.1855L31.9598 41.1815C31.7476 41.1799 31.5448 41.0942 31.3959 40.9431C31.247 40.792 31.1643 40.588 31.1658 40.3758C31.1674 40.1637 31.2531 39.9609 31.4042 39.812C31.5553 39.6631 31.7594 39.5804 31.9715 39.5819L32.5175 39.5859C32.7296 39.5875 32.9324 39.6732 33.0813 39.8243C33.2302 39.9754 33.313 40.1794 33.3114 40.3916C33.3099 40.6037 33.2241 40.8065 33.073 40.9554C32.9219 41.1043 32.7179 41.1871 32.5058 41.1855ZM15.7038 37.8381C15.5987 37.8375 15.4948 37.8161 15.398 37.7752C15.3012 37.7343 15.2135 37.6747 15.1398 37.5998L11.1786 33.58C11.0297 33.4289 10.9469 33.2249 10.9484 33.0127C10.95 32.8006 11.0357 32.5978 11.1868 32.4489C11.3379 32.3 11.5419 32.2172 11.7541 32.2187C11.9662 32.2202 12.169 32.306 12.3179 32.457L16.2792 36.4768C16.3902 36.5895 16.4654 36.7326 16.4951 36.888C16.5248 37.0433 16.5078 37.2041 16.4462 37.3498C16.3846 37.4955 16.2812 37.6197 16.149 37.7066C16.0168 37.7935 15.8618 37.8393 15.7036 37.8381L15.7038 37.8381ZM9.74031 31.7867C9.63527 31.786 9.53139 31.7647 9.43463 31.7238C9.33788 31.6829 9.25016 31.6232 9.17651 31.5483L8.79331 31.1595C8.64548 31.0082 8.5636 30.8045 8.56558 30.593C8.56756 30.3815 8.65325 30.1794 8.80388 30.0309C8.95452 29.8824 9.15784 29.7996 9.36936 29.8007C9.58087 29.8017 9.78336 29.8865 9.93251 30.0365L10.3157 30.4254C10.4268 30.5381 10.5019 30.6811 10.5317 30.8365C10.5614 30.9919 10.5444 31.1526 10.4828 31.2983C10.4212 31.444 10.3178 31.5682 10.1856 31.6551C10.0535 31.742 9.8985 31.7878 9.74031 31.7867ZM26.0661 48.3536C25.9611 48.353 25.8572 48.3316 25.7605 48.2907C25.6637 48.2498 25.576 48.1901 25.5024 48.1152L21.5411 44.0955C21.3922 43.9444 21.3094 43.7404 21.3109 43.5283C21.3125 43.3161 21.3982 43.1133 21.5493 42.9644C21.7004 42.8155 21.9044 42.7327 22.1166 42.7342C22.3287 42.7358 22.5315 42.8215 22.6804 42.9726L26.6417 46.9923C26.7528 47.1049 26.8279 47.248 26.8577 47.4034C26.8875 47.5588 26.8705 47.7195 26.8089 47.8653C26.7472 48.011 26.6438 48.1352 26.5116 48.2221C26.3794 48.3091 26.2244 48.3548 26.0661 48.3536ZM28.4516 50.7742C28.3465 50.7735 28.2426 50.7521 28.1459 50.7112C28.0491 50.6703 27.9614 50.6107 27.8878 50.5357L27.5046 50.1469C27.3583 49.9953 27.2777 49.7921 27.2804 49.5815C27.283 49.3708 27.3687 49.1698 27.5187 49.0219C27.6687 48.874 27.871 48.7913 28.0817 48.7917C28.2923 48.7921 28.4943 48.8756 28.6438 49.024L29.027 49.4129C29.138 49.5256 29.2132 49.6686 29.2429 49.824C29.2727 49.9794 29.2557 50.1401 29.1941 50.2858C29.1325 50.4315 29.0291 50.5557 28.8969 50.6426C28.7647 50.7295 28.6098 50.7753 28.4516 50.7742ZM11.6367 48.248C11.4785 48.2468 11.3242 48.1988 11.1933 48.1099C11.0624 48.0211 10.9608 47.8954 10.9014 47.7488C10.8419 47.6022 10.8272 47.4412 10.8593 47.2863C10.8913 47.1314 10.9685 46.9894 11.0812 46.8784L15.1009 42.9171C15.1756 42.8428 15.2642 42.784 15.3617 42.7441C15.4592 42.7042 15.5636 42.684 15.6689 42.6845C15.7742 42.685 15.8784 42.7064 15.9755 42.7473C16.0725 42.7882 16.1605 42.8479 16.2345 42.9229C16.3084 42.998 16.3668 43.0868 16.4063 43.1845C16.4457 43.2821 16.4656 43.3866 16.4645 43.492C16.4635 43.5973 16.4417 43.7014 16.4004 43.7982C16.3591 43.8951 16.299 43.9829 16.2236 44.0565L12.2039 48.0178C12.1292 48.0916 12.0406 48.15 11.9433 48.1895C11.846 48.229 11.7418 48.2488 11.6367 48.248ZM9.2161 50.6333C9.0579 50.6321 8.9036 50.5841 8.7727 50.4952C8.64181 50.4064 8.54021 50.2807 8.48074 50.1341C8.42128 49.9875 8.40663 49.8266 8.43864 49.6716C8.47065 49.5167 8.54789 49.3747 8.66059 49.2637L9.04945 48.8805C9.20077 48.7327 9.40446 48.6509 9.61597 48.6529C9.82748 48.6549 10.0296 48.7406 10.178 48.8913C10.3265 49.042 10.4092 49.2453 10.4081 49.4568C10.407 49.6683 10.3222 49.8708 10.1722 50.0199L9.78333 50.4031C9.7086 50.477 9.62002 50.5353 9.52267 50.5748C9.42533 50.6143 9.32114 50.6342 9.2161 50.6333ZM22.152 37.8853C21.9938 37.8842 21.8395 37.8362 21.7087 37.7473C21.5778 37.6584 21.4762 37.5328 21.4167 37.3862C21.3572 37.2396 21.3426 37.0786 21.3746 36.9237C21.4066 36.7688 21.4838 36.6268 21.5965 36.5158L25.6163 32.5546C25.7674 32.4057 25.9715 32.3229 26.1836 32.3244C26.3957 32.326 26.5986 32.4117 26.7475 32.5628C26.8964 32.7139 26.9791 32.918 26.9776 33.1301C26.976 33.3422 26.8903 33.5451 26.7392 33.694L22.7194 37.6552C22.6446 37.729 22.556 37.7874 22.4587 37.8269C22.3613 37.8664 22.2571 37.8862 22.152 37.8853ZM28.2035 31.9219C28.0453 31.9207 27.891 31.8727 27.7601 31.7838C27.6293 31.695 27.5277 31.5693 27.4682 31.4227C27.4088 31.2761 27.3941 31.1152 27.4261 30.9602C27.4582 30.8053 27.5354 30.6634 27.6481 30.5523L28.037 30.1691C28.1118 30.0954 28.2004 30.0372 28.2977 29.9977C28.3951 29.9582 28.4992 29.9383 28.6043 29.9391C28.7093 29.9398 28.8131 29.9613 28.9099 30.0022C29.0066 30.0431 29.0944 30.1027 29.1681 30.1775C29.2418 30.2523 29.3001 30.341 29.3395 30.4383C29.379 30.5356 29.3989 30.6398 29.3981 30.7448C29.3974 30.8499 29.3759 30.9537 29.335 31.0505C29.2941 31.1472 29.2345 31.2349 29.1597 31.3087L28.7708 31.6919C28.6961 31.7657 28.6075 31.824 28.5101 31.8635C28.4128 31.903 28.3085 31.9228 28.2035 31.9219Z" fill="#FAC600"/>
<path d="M18.8974 42.0341C19.8627 42.0412 20.651 41.2644 20.6581 40.299C20.6652 39.3336 19.8883 38.5453 18.923 38.5383C17.9576 38.5312 17.1693 39.308 17.1622 40.2734C17.1552 41.2387 17.932 42.0271 18.8974 42.0341Z" fill="#F37168"/>
</g>
<defs>
<clipPath id="clip0_73_4793">
<rect width="53.7217" height="53.7217" fill="white" transform="translate(0.399996) scale(1.01637) rotate(0.419672)"/>
</clipPath>
</defs>
</svg>
