<svg width="24" height="24" viewBox="0 0 24 24" fill="none" xmlns="http://www.w3.org/2000/svg">
<path d="M17.1799 8L6.81993 8C6.02993 8 5.54993 8.87 5.97993 9.54L11.1599 17.68C11.2501 17.8225 11.3749 17.9399 11.5226 18.0212C11.6704 18.1026 11.8363 18.1452 12.0049 18.1452C12.1736 18.1452 12.3395 18.1026 12.4872 18.0212C12.635 17.9399 12.7597 17.8225 12.8499 17.68L18.0199 9.54C18.1175 9.38917 18.1725 9.2148 18.1792 9.0353C18.1859 8.85579 18.1441 8.6778 18.0581 8.52011C17.9721 8.36241 17.8451 8.23085 17.6905 8.13931C17.536 8.04777 17.3596 7.99964 17.1799 8Z" fill="black"/>
</svg>
